<?xml version="1.0" encoding="UTF-8"?>

<svg version="1.2" baseProfile="tiny" width="10mm" height="10mm" viewBox="0 0 1000 1000" preserveAspectRatio="xMidYMid" fill-rule="evenodd" stroke-width="28.222" stroke-linejoin="round" xmlns="http://www.w3.org/2000/svg" xmlns:xlink="http://www.w3.org/1999/xlink" xml:space="preserve">
 <g visibility="visible" id="MasterSlide_1_Standard">
  <desc>Master slide
  </desc>
  <rect fill="none" stroke="none" x="0" y="0" width="1000" height="1000"/>
 </g>
 <g visibility="visible" id="Slide_1_page1">
  <g>
   <path fill="rgb(204,204,204)" stroke="none" d="M 500,1000 C 408,1000 330,979 250,933 170,887 113,830 67,750 21,670 0,592 0,500 0,408 21,330 67,250 113,170 170,113 250,67 330,21 408,0 500,0 592,0 670,21 750,67 830,113 887,170 933,250 979,330 1000,408 1000,500 1000,592 979,670 933,750 887,830 830,887 750,933 670,979 592,1000 500,1000 L 500,1000 Z"/>
   <rect fill="none" stroke="none" x="0" y="0" width="1001" height="1001"/>
  </g>
 </g>
</svg>