<?xml version="1.0" encoding="UTF-8"?>

<svg version="1.2" baseProfile="tiny" width="25.2mm" height="5.2mm" viewBox="0 0 2520 520" preserveAspectRatio="xMidYMid" fill-rule="evenodd" stroke-width="28.222" stroke-linejoin="round" xmlns="http://www.w3.org/2000/svg" xmlns:xlink="http://www.w3.org/1999/xlink" xml:space="preserve">
 <g visibility="visible" id="MasterSlide_1_Standard">
  <desc>Master slide
  </desc>
  <rect fill="none" stroke="none" x="0" y="0" width="2520" height="520"/>
 </g>
 <g visibility="visible" id="Slide_1_page1">
  <g>
   <path fill="rgb(255,255,0)" stroke="none" d="M 2520,-1 C 2125,32 1928,65 1260,65 592,65 395,32 -1,-1 -1,286 568,520 1260,520 1952,520 2520,286 2520,-1 L 2520,-1 Z"/>
   <rect fill="none" stroke="none" x="-1" y="-1" width="2522" height="522"/>
   <rect fill="none" stroke="none" x="0" y="0" width="2522" height="522"/>
  </g>
 </g>
</svg>